…
## Usage

### Listing available stations

Station (locations) are either reference (harmonic) or substations.  Each has a 
identifier and name.

```
library(maree)

# list all of the available stations
locs <- fetch_locations()
# # A tibble: 5,382 x 5
#    `Station ID` Name                                         Type  Latitude Longitude
#    <chr>        <chr>                                        <chr>    <dbl>     <dbl>
#  1 PCT3896_1    0.2 mile off Flat Point, Taku Inlet, Stephe… Sub       58.3    -134. 
#  2 PCT3901_1    0.2 mile off Taku Point, Taku Inlet, Stephe… Sub       58.4    -134. 
#  3 ACT8491_1    0.5 mile southeast of, Pinellas Point, Tamp… Sub       27.7     -82.6
#  4 8537731      0.8 n.mi. above entrance, Alloway Creek, Ne… Sub       39.5     -75.5
#  5 8537535      1 n.mi. above entrance, Mad Horse Creek, Ne… Sub       39.4     -75.4
#  6 ACT8496_1    1.9 miles SE of, Pinellas Point, Tampa Bay,… Sub       27.7     -82.6
#  7 8677833      2.5 miles above mouth, Little Satilla River… Sub       31.1     -81.5
#  8 8537753      2.5 n.mi. above entrance, Alloway Creek, Ne… Sub       39.5     -75.5
#  9 ACT8486_1    2.6 miles south of, Pinellas Point, Tampa B… Sub       27.7     -82.6
# 10 PCT0101_1    28th St. Pier (San Diego), 0.35 nmi. SW (De… Sub       32.7    -117. 
# # … with 5,372 more rows

# or fetch a subset 
locs <- fetch_locations(pattern = glob2rx("*Maine*"))
# # A tibble: 126 x 5
#    `Station ID` Name                                              Type  Latitude Longitude
#    <chr>        <chr>                                             <chr>    <dbl>     <dbl>
#  1 8417377      Androscoggin River entrance, Kennebec River, Mai… Sub       44.0     -69.9
#  2 8417144      Augusta, MCRR Bridge, Kennebec River, Maine       Ref       44.3     -69.8
#  3 8418175      Back Cove, Casco Bay, Maine                       Sub       43.7     -70.3
#  4 8416961      Back River, Sheepscot River, Maine                Sub       44.0     -69.7
#  5 8414612      Bangor, Penobscot River, Maine                    Ref       44.8     -68.8
#  6 8414612      Bangor, Penobscot River, Maine (sub)              Sub       44.8     -68.8
#  7 8413320      Bar Harbor, Frenchman Bay, Maine                  Ref       44.4     -68.2
#  8 8413651      Bass Harbor, Mount Desert Island, Maine           Sub       44.2     -68.4
#  9 8417227      Bath, Kennebec River, Maine                       Ref       43.9     -69.8
# 10 8417227      Bath, Kennebec River, Maine (sub)                 Sub       43.9     -69.8
# # … with 116 more rows
```
…
```
Portland <- get_raw_mode(location = "Portland", 
  time = as.POSIXct(c("1995-12-16 00:00:00", "1995-12-20 23:59:59"), tz = "UTC"),
  step = '01:00',
  ofile = "~/1995-12-16-rawtide.csv",
  compress = TRUE)

# $location
# [1] "Portland"
# 
# $file
# [1] "/home/btupper/tide.csv.gz"
# 
# $data
# # A tibble: 120 x 2
#    datetime            height
#    <dttm>               <dbl>
#  1 1995-12-16 05:00:00   1.47
#  2 1995-12-16 06:00:00   2.84
#  3 1995-12-16 07:00:00   4.70
#  4 1995-12-16 08:00:00   6.67
#  5 1995-12-16 09:00:00   8.14
#  6 1995-12-16 10:00:00   8.72
#  7 1995-12-16 11:00:00   8.43
#  8 1995-12-16 12:00:00   7.34
#  9 1995-12-16 13:00:00   5.61
# 10 1995-12-16 14:00:00   3.64
# # … with 110 more rows
```
…
